<svg xmlns="http://www.w3.org/2000/svg" width="24" height="24" viewBox="0 0 24 24">
  <path fill="#EAC84D" fill-rule="evenodd" d="M11.528 19.156l-6.233 3.337c-.75.4-1.23.055-1.074-.78l1.295-6.866L.37 10.035c-.62-.58-.435-1.137.4-1.245l7.042-.914 3.05-6.302c.37-.764.967-.767 1.338 0l3.05 6.302 7.04.914c.84.11 1.02.667.402 1.245l-5.146 4.812 1.29 6.866c.157.832-.324 1.18-1.073.78l-6.23-3.337z"/>
</svg>
